<?xml version="1.0" encoding="UTF-8" standalone="no"?>
<!-- Created with Inkscape (http://www.inkscape.org/) -->

<svg
   width="800"
   height="800"
   viewBox="0 0 800 800"
   version="1.1"
   id="svg5"
   inkscape:version="1.2 (dc2aedaf03, 2022-05-15)"
   sodipodi:docname="funkus_cat.svg"
   xmlns:inkscape="http://www.inkscape.org/namespaces/inkscape"
   xmlns:sodipodi="http://sodipodi.sourceforge.net/DTD/sodipodi-0.dtd"
   xmlns:xlink="http://www.w3.org/1999/xlink"
   xmlns="http://www.w3.org/2000/svg"
   xmlns:svg="http://www.w3.org/2000/svg"
   xmlns:rdf="http://www.w3.org/1999/02/22-rdf-syntax-ns#"
   xmlns:cc="http://creativecommons.org/ns#"
   xmlns:dc="http://purl.org/dc/elements/1.1/">
  <title
     id="title194">Funkus with cat ears</title>
  <sodipodi:namedview
     id="namedview7"
     pagecolor="#505050"
     bordercolor="#eeeeee"
     borderopacity="1"
     inkscape:showpageshadow="0"
     inkscape:pageopacity="0"
     inkscape:pagecheckerboard="0"
     inkscape:deskcolor="#505050"
     inkscape:document-units="px"
     showgrid="true"
     inkscape:current-layer="funkus_layer"
     showguides="true"
     shape-rendering="crispEdges">
    <sodipodi:guide
       position="400,700"
       orientation="1,0"
       id="guide322"
       inkscape:locked="false" />
    <inkscape:grid
       type="xygrid"
       id="grid1450"
       spacingx="1"
       spacingy="1"
       color="#ff0000"
       opacity="0.1254902"
       empcolor="#000000"
       empopacity="0.25098039"
       empspacing="10" />
    <sodipodi:guide
       position="470,400"
       orientation="0,-1"
       id="guide532"
       inkscape:locked="false" />
  </sodipodi:namedview>
  <defs
     id="defs2">
    <linearGradient
       id="animal_eye_colour"
       inkscape:swatch="solid">
      <stop
         style="stop-color:#fcc314;stop-opacity:1;"
         offset="0"
         id="stop1849" />
    </linearGradient>
    <linearGradient
       id="inner_ear_colour"
       inkscape:swatch="solid">
      <stop
         style="stop-color:#4c1999;stop-opacity:1;"
         offset="0"
         id="stop1843" />
    </linearGradient>
    <linearGradient
       id="eye_colour"
       inkscape:swatch="solid">
      <stop
         style="stop-color:#ffffff;stop-opacity:1;"
         offset="0"
         id="stop1534" />
    </linearGradient>
    <linearGradient
       id="contour_colour"
       inkscape:swatch="solid"
       gradientTransform="matrix(1.2727204,0,0,1.1428551,-65.987518,-72.566231)">
      <stop
         style="stop-color:#11012f;stop-opacity:1;"
         offset="0"
         id="stop1436" />
    </linearGradient>
    <linearGradient
       id="inner_cap_colour"
       inkscape:swatch="solid">
      <stop
         style="stop-color:#330066;stop-opacity:1;"
         offset="0"
         id="stop1003" />
    </linearGradient>
    <linearGradient
       id="outer_cap_colour"
       inkscape:swatch="solid"
       gradientTransform="matrix(-1,0,0,1,876.51432,-20)">
      <stop
         style="stop-color:#6633cc;stop-opacity:1;"
         offset="0"
         id="stop1208" />
    </linearGradient>
    <linearGradient
       id="stem_colour"
       inkscape:swatch="solid">
      <stop
         style="stop-color:#ff9966;stop-opacity:1;"
         offset="0"
         id="stop1147" />
    </linearGradient>
    <linearGradient
       inkscape:collect="always"
       xlink:href="#outer_cap_colour"
       id="linearGradient1212"
       x1="22.382624"
       y1="175"
       x2="778.42378"
       y2="175"
       gradientUnits="userSpaceOnUse"
       gradientTransform="translate(0,-30)" />
    <linearGradient
       inkscape:collect="always"
       xlink:href="#inner_cap_colour"
       id="linearGradient1007"
       x1="56.264488"
       y1="215.05252"
       x2="743.74231"
       y2="215.05252"
       gradientUnits="userSpaceOnUse" />
    <linearGradient
       inkscape:collect="always"
       xlink:href="#contour_colour"
       id="linearGradient1440"
       x1="55.749044"
       y1="245.05249"
       x2="744.26138"
       y2="245.05249"
       gradientUnits="userSpaceOnUse" />
    <linearGradient
       inkscape:collect="always"
       xlink:href="#contour_colour"
       id="linearGradient1227"
       x1="320"
       y1="380"
       x2="340"
       y2="380"
       gradientUnits="userSpaceOnUse"
       gradientTransform="matrix(1.3179696,0,0,2.6141044,-117.04981,-604.12039)" />
    <linearGradient
       inkscape:collect="always"
       xlink:href="#contour_colour"
       id="linearGradient1294"
       gradientUnits="userSpaceOnUse"
       gradientTransform="matrix(1.3179696,0,0,2.6141042,42.949881,-604.12034)"
       x1="320"
       y1="380"
       x2="340"
       y2="380" />
    <linearGradient
       inkscape:collect="always"
       xlink:href="#contour_colour"
       id="linearGradient1296"
       gradientUnits="userSpaceOnUse"
       gradientTransform="matrix(1.4000022,0,0,1.0666682,31.495157,-31.365268)"
       x1="270"
       y1="395"
       x2="370"
       y2="395" />
    <linearGradient
       inkscape:collect="always"
       xlink:href="#stem_colour"
       id="linearGradient880-3"
       gradientUnits="userSpaceOnUse"
       x1="400"
       y1="780"
       x2="400"
       y2="200" />
    <linearGradient
       inkscape:collect="always"
       xlink:href="#outer_cap_colour"
       id="linearGradient891"
       gradientUnits="userSpaceOnUse"
       gradientTransform="translate(0,-30)"
       x1="22.382624"
       y1="175"
       x2="778.42377"
       y2="175" />
    <linearGradient
       inkscape:collect="always"
       xlink:href="#inner_ear_colour"
       id="linearGradient1847"
       x1="535"
       y1="127.75268"
       x2="646.66667"
       y2="127.75268"
       gradientUnits="userSpaceOnUse"
       gradientTransform="translate(-30,-10)" />
    <linearGradient
       inkscape:collect="always"
       xlink:href="#animal_eye_colour"
       id="linearGradient1853"
       x1="245.25728"
       y1="390.2417"
       x2="396.77789"
       y2="390.2417"
       gradientUnits="userSpaceOnUse" />
    <linearGradient
       inkscape:collect="always"
       xlink:href="#inner_ear_colour"
       id="linearGradient1859"
       x1="153.33333"
       y1="147.75269"
       x2="265"
       y2="147.75269"
       gradientUnits="userSpaceOnUse"
       gradientTransform="translate(30,-10)" />
    <linearGradient
       inkscape:collect="always"
       xlink:href="#animal_eye_colour"
       id="linearGradient1917"
       x1="403.73529"
       y1="389.96869"
       x2="555.25659"
       y2="389.96869"
       gradientUnits="userSpaceOnUse" />
    <linearGradient
       inkscape:collect="always"
       xlink:href="#blush_colour"
       id="linearGradient1371"
       gradientUnits="userSpaceOnUse"
       gradientTransform="matrix(0.91138229,0,0,0.91135286,114.10453,55.677001)"
       x1="240"
       y1="503.33334"
       x2="270"
       y2="503.33334" />
    <linearGradient
       id="blush_colour"
       inkscape:swatch="solid">
      <stop
         style="stop-color:#ff0066;stop-opacity:1;"
         offset="0"
         id="stop1340" />
    </linearGradient>
    <linearGradient
       inkscape:collect="always"
       xlink:href="#blush_colour"
       id="linearGradient1344"
       x1="240"
       y1="503.33334"
       x2="270"
       y2="503.33334"
       gradientUnits="userSpaceOnUse"
       gradientTransform="matrix(0.91138231,0,0,0.91135299,37.288003,55.676894)" />
    <linearGradient
       id="face"
       inkscape:swatch="solid">
      <stop
         style="stop-color:#2b2b00;stop-opacity:1;"
         offset="0"
         id="stop7071" />
    </linearGradient>
  </defs>
  <g
     inkscape:label="mushroom"
     inkscape:groupmode="layer"
     id="funkus_layer"
     style="display:inline;stroke-width:1.15211"
     transform="matrix(0.86798284,0,0,0.867955,52.826984,112.59751)"
     sodipodi:insensitive="true"
     inkscape:highlight-color="#ff0000">
    <path
       style="display:none;fill:url(#linearGradient1212);fill-opacity:1;stroke:url(#contour_colour);stroke-width:11.5211;stroke-linecap:butt;stroke-linejoin:miter;stroke-dasharray:none;stroke-opacity:1"
       d="M 50,350 C 86.967017,370.27849 717.27777,317.61966 750,300 880,230 600,10 400,20 200,30 -79.152542,279.15254 50,350 Z"
       id="original_cap"
       sodipodi:nodetypes="sszs"
       inkscape:label="original cap" />
    <path
       id="inner_cap"
       style="display:inline;opacity:1;fill:url(#linearGradient1007);fill-opacity:1;stroke:url(#linearGradient1440);stroke-width:11.5211;stroke-linecap:butt;stroke-linejoin:miter;stroke-dasharray:none;stroke-opacity:1"
       d="M 740,300 C 726.90968,317.90597 96.027741,369.94504 60,350 23.972259,330.05496 199.95059,260.26821 400,250 c 200.04941,-10.26821 360,20 340,50 z"
       inkscape:label="inner cap"
       sodipodi:nodetypes="czzc" />
    <path
       style="display:inline;mix-blend-mode:normal;fill:url(#linearGradient880-3);fill-opacity:1;stroke:url(#contour_colour);stroke-width:11.5211;stroke-linecap:butt;stroke-linejoin:miter;stroke-miterlimit:4;stroke-dasharray:none;stroke-opacity:1;paint-order:normal"
       d="m 253.9034,247.69543 c 0,130 -139.85825,269.99577 -100,402.30457 15.65217,51.95711 50,90 120,110 79.2893,22.65408 180.7107,22.65408 260,0 70,-20 104.34783,-58.04289 120,-110 39.85825,-132.3088 -100,-272.30457 -100,-402.30457 z"
       id="stem"
       sodipodi:nodetypes="cassacc"
       inkscape:label="stem"
       class="UnoptimicedTransforms"
       transform="translate(-3.903401)" />
    <path
       id="outer_cap"
       style="display:inline;fill:url(#linearGradient891);fill-opacity:1;stroke:url(#contour_colour);stroke-width:11.5211;stroke-linecap:butt;stroke-linejoin:miter;stroke-dasharray:none;stroke-opacity:1"
       inkscape:label="outer cap"
       d="M 418.96875,19.724609 C 412.57746,19.599487 406.24999,19.6875 400,20 200.0002,29.99999 -79.152413,279.15261 50,350 c 7.126419,3.90924 36.615054,5.06259 79.31055,4.32422 C 92.179158,354.72857 66.398565,353.54226 60,350 23.972295,330.05498 199.95079,260.2682 400,250 c 200.04921,-10.2682 359.99998,20.00003 340,50 -2.55876,3.50008 -29.19449,8.31889 -69.90625,13.63477 C 713.6006,308.28906 743.57328,303.46054 750,300 875.93737,232.18757 617.09874,23.60339 418.96875,19.724609 Z" />
  </g>
  <g
     inkscape:groupmode="layer"
     id="face_layer"
     inkscape:label="face"
     style="display:inline;stroke-width:1.15211"
     transform="matrix(0.86798284,0,0,0.867955,52.826984,112.59751)"
     inkscape:highlight-color="#ff8000"
     sodipodi:insensitive="true">
    <g
       id="blush"
       inkscape:label="blush"
       style="display:inline;opacity:0.5;fill:#ff0033;fill-opacity:1;stroke:none;stroke-width:1.15211"
       transform="matrix(4.4244197,0,0,3.3185277,-963.18127,-1223.2381)"
       inkscape:highlight-color="#f37f35">
      <ellipse
         style="opacity:1;fill:url(#linearGradient1371);fill-opacity:1;stroke:none;stroke-width:36;stroke-linecap:round;stroke-linejoin:round;stroke-dasharray:none"
         id="right_blush"
         cx="346.50699"
         cy="514.3913"
         inkscape:label="right blush"
         ry="18.22706"
         rx="13.670733" />
      <ellipse
         style="opacity:1;fill:url(#linearGradient1344);fill-opacity:1;stroke:none;stroke-width:36.0001;stroke-linecap:round;stroke-linejoin:round;stroke-dasharray:none"
         id="left_blush"
         cx="269.69049"
         cy="514.3913"
         rx="13.670734"
         ry="18.227062"
         inkscape:label="left blush" />
    </g>
    <g
       id="eyes"
       inkscape:label="eyes"
       transform="translate(0,-20.000008)"
       style="stroke-width:1.15211">
      <ellipse
         style="fill:url(#linearGradient1917);fill-opacity:1;stroke:url(#linearGradient1296);stroke-width:11.5211;stroke-linecap:round;stroke-dasharray:none"
         id="right_eye"
         cx="479.49594"
         cy="389.96869"
         rx="70.000114"
         ry="80.000114"
         inkscape:label="right eye" />
      <ellipse
         style="fill:url(#linearGradient1294);fill-opacity:1;stroke:none;stroke-width:8.06481;stroke-linecap:round;stroke-dasharray:none"
         id="right_pupil"
         cx="477.87985"
         cy="389.23917"
         inkscape:label="right pupil"
         rx="26.359392"
         ry="52.282085" />
      <ellipse
         style="fill:url(#linearGradient1853);fill-opacity:1;stroke:url(#contour_colour);stroke-width:11.5211;stroke-linecap:round;stroke-dasharray:none"
         id="left_eye"
         cx="321.01758"
         cy="390.2417"
         rx="69.999748"
         ry="79.999992"
         inkscape:label="left eye" />
      <ellipse
         style="fill:url(#linearGradient1227);fill-opacity:1;stroke:none;stroke-width:8.06481;stroke-linecap:round;stroke-dasharray:none"
         id="left_pupil"
         cx="317.88016"
         cy="389.23917"
         inkscape:label="left pupil"
         rx="26.359392"
         ry="52.282089" />
    </g>
    <path
       style="fill:none;stroke:url(#contour_colour);stroke-width:34.5634;stroke-linecap:round;stroke-linejoin:round;stroke-dasharray:none;stroke-opacity:1"
       d="m 307.8091,515.46738 46.08386,57.60667 46.08386,-57.60667 46.08386,57.60667 46.08386,-57.60667"
       id="mouth"
       sodipodi:nodetypes="ccccc"
       inkscape:label="mouth" />
  </g>
  <g
     inkscape:groupmode="layer"
     id="cat_ears_layer"
     inkscape:label="cat ears"
     inkscape:highlight-color="#ffff00"
     transform="translate(0,10)"
     sodipodi:insensitive="true">
    <path
       style="fill:url(#outer_cap_colour);stroke:url(#contour_colour);stroke-width:10;stroke-linecap:round;stroke-linejoin:round;stroke-dasharray:none;stroke-opacity:1"
       d="m 480,140 c 0,0 110.04282,-158.403708 140,-130 29.95718,28.403708 10,200 10,200"
       id="path1339"
       sodipodi:nodetypes="czc"
       inkscape:label="outer right ear" />
    <path
       style="fill:url(#linearGradient1847);fill-opacity:1;stroke:none;stroke-width:10;stroke-linecap:round;stroke-linejoin:round;stroke-dasharray:none;stroke-opacity:1"
       d="m 505,140 c 0,0 90,-130 105,-100 15,30 0,150 0,150"
       id="path1341"
       sodipodi:nodetypes="czc"
       inkscape:label="inner right ear" />
    <path
       style="fill:url(#outer_cap_colour);stroke:url(#contour_colour);stroke-width:10;stroke-linecap:round;stroke-linejoin:round;stroke-dasharray:none;stroke-opacity:1"
       d="M 320,150 C 320,150 209.95718,-8.4037078 180,20 150.04282,48.403708 170,230 170,230"
       id="path1088"
       sodipodi:nodetypes="czc"
       inkscape:label="outer left ear" />
    <path
       style="fill:url(#linearGradient1859);fill-opacity:1;stroke:none;stroke-width:10;stroke-linecap:round;stroke-linejoin:round;stroke-dasharray:none;stroke-opacity:1"
       d="m 295,150 c 0,0 -90,-130 -105,-100 -15,30 0,160 0,160"
       id="path1239"
       sodipodi:nodetypes="czc"
       inkscape:label="inner left ear" />
  </g>
  <metadata
     id="metadata192">
    <rdf:RDF>
      <cc:Work
         rdf:about="">
        <dc:title>Funkus with cat ears</dc:title>
        <dc:date>2022-06-15</dc:date>
        <dc:creator>
          <cc:Agent>
            <dc:title>tastytea</dc:title>
          </cc:Agent>
        </dc:creator>
        <dc:subject>
          <rdf:Bag>
            <rdf:li>fungus</rdf:li>
            <rdf:li>mushroom</rdf:li>
            <rdf:li>emoji</rdf:li>
            <rdf:li>cat</rdf:li>
          </rdf:Bag>
        </dc:subject>
        <cc:license
           rdf:resource="http://creativecommons.org/publicdomain/zero/1.0/" />
        <dc:source>https://codeberg.org/tastytea/funkus</dc:source>
      </cc:Work>
      <cc:License
         rdf:about="http://creativecommons.org/publicdomain/zero/1.0/">
        <cc:permits
           rdf:resource="http://creativecommons.org/ns#Reproduction" />
        <cc:permits
           rdf:resource="http://creativecommons.org/ns#Distribution" />
        <cc:permits
           rdf:resource="http://creativecommons.org/ns#DerivativeWorks" />
      </cc:License>
    </rdf:RDF>
  </metadata>
  <g
     id="whiskers_layer"
     inkscape:label="whiskers"
     transform="translate(40,70)"
     style="display:inline;fill:url(#contour_colour)"
     inkscape:highlight-color="#00ffff"
     sodipodi:insensitive="true"
     inkscape:groupmode="layer">
    <path
       style="fill:url(#contour_colour);fill-opacity:1;stroke:none;stroke-width:1.51834px;stroke-linecap:butt;stroke-linejoin:miter;stroke-opacity:1"
       d="m 665,515 c 5,-5 -160,-60 -165,-35 -5,25 160,40 165,35 z"
       id="whisker_right_bottom"
       sodipodi:nodetypes="zzz"
       inkscape:label="right bottom" />
    <path
       style="fill:url(#contour_colour);fill-opacity:1;stroke:none;stroke-width:1.51834px;stroke-linecap:butt;stroke-linejoin:miter;stroke-opacity:1"
       d="m 665,370 c -5,-5 -180,55 -165,80 15,25 170,-75 165,-80 z"
       id="whisker_right_top"
       sodipodi:nodetypes="zzz"
       inkscape:label="right top" />
    <path
       style="fill:url(#contour_colour);fill-opacity:1;stroke:none;stroke-width:1.51834px;stroke-linecap:butt;stroke-linejoin:miter;stroke-opacity:1"
       d="M 54.999996,515 C 49.999996,510 215,455 220,480 225,505 59.999996,520 54.999996,515 Z"
       id="whisker_left_bottom"
       sodipodi:nodetypes="zzz"
       inkscape:label="left bottom" />
    <path
       style="fill:url(#contour_colour);fill-opacity:1;stroke:none;stroke-width:1.518;stroke-linecap:butt;stroke-linejoin:miter;stroke-dasharray:none;stroke-opacity:1"
       d="M 54.999996,370 C 59.999996,365 235,425 220,450 205,475 49.999996,375 54.999996,370 Z"
       id="whisker_left_top"
       sodipodi:nodetypes="zzz"
       inkscape:label="left top" />
  </g>
</svg>
