<?xml version="1.0" encoding="UTF-8" standalone="no"?>
<!-- Created with Inkscape (http://www.inkscape.org/) -->

<svg
   width="800"
   height="800"
   viewBox="0 0 800 800"
   version="1.1"
   id="svg5"
   inkscape:version="1.2 (dc2aedaf03, 2022-05-15)"
   sodipodi:docname="funkus_smile.svg"
   xmlns:inkscape="http://www.inkscape.org/namespaces/inkscape"
   xmlns:sodipodi="http://sodipodi.sourceforge.net/DTD/sodipodi-0.dtd"
   xmlns:xlink="http://www.w3.org/1999/xlink"
   xmlns="http://www.w3.org/2000/svg"
   xmlns:svg="http://www.w3.org/2000/svg"
   xmlns:rdf="http://www.w3.org/1999/02/22-rdf-syntax-ns#"
   xmlns:cc="http://creativecommons.org/ns#"
   xmlns:dc="http://purl.org/dc/elements/1.1/">
  <title
     id="title194">Smiling Funkus</title>
  <sodipodi:namedview
     id="namedview7"
     pagecolor="#505050"
     bordercolor="#eeeeee"
     borderopacity="1"
     inkscape:showpageshadow="0"
     inkscape:pageopacity="0"
     inkscape:pagecheckerboard="0"
     inkscape:deskcolor="#505050"
     inkscape:document-units="px"
     showgrid="true"
     inkscape:current-layer="funkus_layer"
     showguides="true"
     shape-rendering="crispEdges">
    <sodipodi:guide
       position="400,700"
       orientation="1,0"
       id="guide322"
       inkscape:locked="false" />
    <inkscape:grid
       type="xygrid"
       id="grid1450"
       spacingx="1"
       spacingy="1"
       color="#ff0000"
       opacity="0.1254902"
       empcolor="#000000"
       empopacity="0.25098039"
       empspacing="10" />
    <sodipodi:guide
       position="470,400"
       orientation="0,-1"
       id="guide532"
       inkscape:locked="false" />
  </sodipodi:namedview>
  <defs
     id="defs2">
    <linearGradient
       id="eye_colour"
       inkscape:swatch="solid">
      <stop
         style="stop-color:#ffffff;stop-opacity:1;"
         offset="0"
         id="stop1534" />
    </linearGradient>
    <linearGradient
       id="contour_colour"
       inkscape:swatch="solid"
       gradientTransform="matrix(-1.272725,0,0,1.1428551,941.48674,-52.80793)">
      <stop
         style="stop-color:#11012f;stop-opacity:1;"
         offset="0"
         id="stop1436" />
    </linearGradient>
    <linearGradient
       id="inner_cap_colour"
       inkscape:swatch="solid">
      <stop
         style="stop-color:#330066;stop-opacity:1;"
         offset="0"
         id="stop1003" />
    </linearGradient>
    <linearGradient
       id="outer_cap_colour"
       inkscape:swatch="solid">
      <stop
         style="stop-color:#6633cc;stop-opacity:1;"
         offset="0"
         id="stop1208" />
    </linearGradient>
    <linearGradient
       id="stem_colour"
       inkscape:swatch="solid">
      <stop
         style="stop-color:#ff9966;stop-opacity:1;"
         offset="0"
         id="stop1147" />
    </linearGradient>
    <linearGradient
       inkscape:collect="always"
       xlink:href="#outer_cap_colour"
       id="linearGradient1212"
       x1="22.382624"
       y1="175"
       x2="778.42378"
       y2="175"
       gradientUnits="userSpaceOnUse"
       gradientTransform="translate(0,-30)" />
    <linearGradient
       inkscape:collect="always"
       xlink:href="#inner_cap_colour"
       id="linearGradient1007"
       x1="56.264488"
       y1="215.05252"
       x2="743.74231"
       y2="215.05252"
       gradientUnits="userSpaceOnUse" />
    <linearGradient
       inkscape:collect="always"
       xlink:href="#contour_colour"
       id="linearGradient1440"
       x1="55.749044"
       y1="245.05249"
       x2="744.26138"
       y2="245.05249"
       gradientUnits="userSpaceOnUse" />
    <linearGradient
       inkscape:collect="always"
       xlink:href="#contour_colour"
       id="linearGradient1227"
       x1="320"
       y1="380"
       x2="340"
       y2="380"
       gradientUnits="userSpaceOnUse"
       gradientTransform="matrix(1.7499998,0,0,1.7499998,-262.49993,-269.99985)" />
    <linearGradient
       inkscape:collect="always"
       xlink:href="#contour_colour"
       id="linearGradient1294"
       gradientUnits="userSpaceOnUse"
       gradientTransform="matrix(1.75,0,0,1.75,-102.5,-269.99993)"
       x1="320"
       y1="380"
       x2="340"
       y2="380" />
    <linearGradient
       inkscape:collect="always"
       xlink:href="#contour_colour"
       id="linearGradient1296"
       gradientUnits="userSpaceOnUse"
       gradientTransform="matrix(1.4000022,0,0,1.0666682,31.999216,-31.333835)"
       x1="270"
       y1="395"
       x2="370"
       y2="395" />
    <linearGradient
       inkscape:collect="always"
       xlink:href="#eye_colour"
       id="linearGradient1538"
       x1="245"
       y1="376.60458"
       x2="395"
       y2="376.60458"
       gradientUnits="userSpaceOnUse"
       gradientTransform="matrix(1.1666667,0,0,1.0443237,-53.333154,-3.2971318)" />
    <linearGradient
       inkscape:collect="always"
       xlink:href="#eye_colour"
       id="linearGradient1544"
       x1="405"
       y1="376.60458"
       x2="555"
       y2="376.60458"
       gradientUnits="userSpaceOnUse"
       gradientTransform="matrix(0.97759279,0,0,0.8281193,10.755445,78.126569)" />
    <linearGradient
       inkscape:collect="always"
       xlink:href="#stem_colour"
       id="linearGradient880-3"
       gradientUnits="userSpaceOnUse"
       x1="400"
       y1="780"
       x2="400"
       y2="200" />
    <linearGradient
       inkscape:collect="always"
       xlink:href="#outer_cap_colour"
       id="linearGradient891"
       gradientUnits="userSpaceOnUse"
       gradientTransform="translate(0,-30)"
       x1="22.382624"
       y1="175"
       x2="778.42377"
       y2="175" />
    <linearGradient
       inkscape:collect="always"
       xlink:href="#blush_colour"
       id="linearGradient1371"
       gradientUnits="userSpaceOnUse"
       gradientTransform="matrix(1.2000004,0,0,1.2000004,62.999966,-104.66688)"
       x1="240"
       y1="503.33334"
       x2="270"
       y2="503.33334" />
    <linearGradient
       id="blush_colour"
       inkscape:swatch="solid">
      <stop
         style="stop-color:#ff0066;stop-opacity:1;"
         offset="0"
         id="stop1340" />
    </linearGradient>
    <linearGradient
       inkscape:collect="always"
       xlink:href="#blush_colour"
       id="linearGradient1344"
       x1="240"
       y1="503.33334"
       x2="270"
       y2="503.33334"
       gradientUnits="userSpaceOnUse"
       gradientTransform="matrix(1.2000004,0,0,1.2000004,-45.000088,-104.66689)" />
  </defs>
  <g
     inkscape:label="mushroom"
     inkscape:groupmode="layer"
     id="funkus_layer"
     style="display:inline"
     sodipodi:insensitive="true"
     inkscape:highlight-color="#ff0000">
    <path
       style="display:none;fill:url(#linearGradient1212);fill-opacity:1;stroke:url(#contour_colour);stroke-width:10;stroke-linecap:butt;stroke-linejoin:miter;stroke-dasharray:none;stroke-opacity:1"
       d="M 50,350 C 86.967017,370.27849 717.27777,317.61966 750,300 880,230 600,10 400,20 200,30 -79.152542,279.15254 50,350 Z"
       id="original_cap"
       sodipodi:nodetypes="sszs"
       inkscape:label="original cap" />
    <path
       id="inner_cap"
       style="display:inline;opacity:1;fill:url(#linearGradient1007);fill-opacity:1;stroke:url(#linearGradient1440);stroke-width:10;stroke-linecap:butt;stroke-linejoin:miter;stroke-dasharray:none;stroke-opacity:1"
       d="M 740,300 C 726.90968,317.90597 96.027741,369.94504 60,350 23.972259,330.05496 199.95059,260.26821 400,250 c 200.04941,-10.26821 360,20 340,50 z"
       inkscape:label="inner cap"
       sodipodi:nodetypes="czzc" />
    <path
       style="display:inline;mix-blend-mode:normal;fill:url(#linearGradient880-3);fill-opacity:1;stroke:url(#contour_colour);stroke-width:10;stroke-linecap:butt;stroke-linejoin:miter;stroke-miterlimit:4;stroke-dasharray:none;stroke-opacity:1;paint-order:normal"
       d="m 253.9034,248 c -0.51282,133.07692 -139.81875,269.78208 -100,402 15.64757,51.95766 50,90 120,110 79.2893,22.65408 180.7107,22.65408 260,0 70,-20 104.35243,-58.04234 120,-110 39.81875,-132.21792 -100,-270 -100,-402 z"
       id="stem"
       sodipodi:nodetypes="cassacc"
       inkscape:label="stem"
       class="UnoptimicedTransforms"
       transform="translate(-3.903401)" />
    <path
       id="outer_cap"
       style="display:inline;fill:url(#linearGradient891);fill-opacity:1;stroke:url(#contour_colour);stroke-width:10;stroke-linecap:butt;stroke-linejoin:miter;stroke-dasharray:none;stroke-opacity:1"
       inkscape:label="outer cap"
       d="M 418.96875,19.724609 C 412.57746,19.599487 406.24999,19.6875 400,20 200.0002,29.99999 -79.152413,279.15261 50,350 c 7.126419,3.90924 36.615054,5.06259 79.31055,4.32422 C 92.179158,354.72857 66.398565,353.54226 60,350 23.972295,330.05498 199.95079,260.2682 400,250 c 200.04921,-10.2682 359.99998,20.00003 340,50 -2.55876,3.50008 -29.19449,8.31889 -69.90625,13.63477 C 713.6006,308.28906 743.57328,303.46054 750,300 875.93737,232.18757 617.09874,23.60339 418.96875,19.724609 Z" />
  </g>
  <g
     inkscape:groupmode="layer"
     id="face_layer"
     inkscape:label="face"
     style="display:inline"
     inkscape:highlight-color="#ff8800"
     sodipodi:insensitive="true">
    <g
       id="blush"
       inkscape:label="blush"
       style="display:inline;opacity:0.5;fill:#ff0033;fill-opacity:1;stroke:none"
       transform="matrix(3.3333324,0,0,2.4999991,-649.99975,-778.33291)"
       inkscape:highlight-color="#ff8800">
      <ellipse
         style="opacity:1;fill:url(#linearGradient1371);fill-opacity:1;stroke:none;stroke-width:36;stroke-linecap:round;stroke-linejoin:round;stroke-dasharray:none"
         id="right_blush"
         cx="369.00003"
         cy="499.33334"
         rx="18.000006"
         ry="24.00001"
         inkscape:label="right blush" />
      <ellipse
         style="opacity:1;fill:url(#linearGradient1344);fill-opacity:1;stroke:none;stroke-width:36.0001;stroke-linecap:round;stroke-linejoin:round;stroke-dasharray:none"
         id="left_blush"
         cx="261"
         cy="499.33334"
         rx="18.000006"
         ry="24.00001"
         inkscape:label="left blush" />
    </g>
    <g
       id="eyes"
       inkscape:label="eyes"
       transform="translate(0,-20.000008)"
       style="display:inline">
      <ellipse
         style="fill:url(#linearGradient1544);fill-opacity:1;stroke:url(#linearGradient1296);stroke-width:10;stroke-linecap:round;stroke-dasharray:none"
         id="right_eye"
         cx="480"
         cy="390.00012"
         rx="70.000114"
         ry="80.000114"
         inkscape:label="right eye" />
      <circle
         style="fill:url(#linearGradient1294);fill-opacity:1;stroke:none;stroke-width:7;stroke-linecap:round;stroke-dasharray:none"
         id="right_pupil"
         cx="475"
         cy="395"
         inkscape:label="right pupil"
         r="35" />
      <ellipse
         style="fill:url(#linearGradient1538);fill-opacity:1;stroke:url(#contour_colour);stroke-width:10;stroke-linecap:round;stroke-dasharray:none"
         id="left_eye"
         cx="320.00024"
         cy="390"
         rx="70"
         ry="79.999992"
         inkscape:label="left eye" />
      <circle
         style="fill:url(#linearGradient1227);fill-opacity:1;stroke:none;stroke-width:7;stroke-linecap:round;stroke-dasharray:none"
         id="left_pupil"
         cx="315"
         cy="395"
         inkscape:label="left pupil"
         r="34.999996" />
    </g>
    <path
       style="fill:none;stroke:url(#contour_colour);stroke-width:30;stroke-linecap:round;stroke-linejoin:miter;stroke-dasharray:none;stroke-opacity:1"
       d="m 280,520 c 0,0 41.01135,69.40076 120,70 78.98865,0.59924 120,-70 120,-70"
       id="mouth"
       sodipodi:nodetypes="czc"
       inkscape:label="mouth" />
  </g>
  <metadata
     id="metadata192">
    <rdf:RDF>
      <cc:Work
         rdf:about="">
        <dc:title>Smiling Funkus</dc:title>
        <dc:date>2022-06-15</dc:date>
        <dc:creator>
          <cc:Agent>
            <dc:title>tastytea</dc:title>
          </cc:Agent>
        </dc:creator>
        <dc:subject>
          <rdf:Bag>
            <rdf:li>fungus</rdf:li>
            <rdf:li>mushroom</rdf:li>
            <rdf:li>emoji</rdf:li>
          </rdf:Bag>
        </dc:subject>
        <cc:license
           rdf:resource="http://creativecommons.org/publicdomain/zero/1.0/" />
        <dc:source>https://codeberg.org/tastytea/funkus</dc:source>
      </cc:Work>
      <cc:License
         rdf:about="http://creativecommons.org/publicdomain/zero/1.0/">
        <cc:permits
           rdf:resource="http://creativecommons.org/ns#Reproduction" />
        <cc:permits
           rdf:resource="http://creativecommons.org/ns#Distribution" />
        <cc:permits
           rdf:resource="http://creativecommons.org/ns#DerivativeWorks" />
      </cc:License>
    </rdf:RDF>
  </metadata>
</svg>
