<?xml version="1.0" encoding="UTF-8" standalone="no"?>
<!-- Created with Inkscape (http://www.inkscape.org/) -->

<svg
   width="800"
   height="800"
   viewBox="0 0 800 800"
   version="1.1"
   id="svg5"
   inkscape:version="1.2 (dc2aedaf03, 2022-05-15)"
   sodipodi:docname="funkus_sleep.svg"
   xml:space="preserve"
   xmlns:inkscape="http://www.inkscape.org/namespaces/inkscape"
   xmlns:sodipodi="http://sodipodi.sourceforge.net/DTD/sodipodi-0.dtd"
   xmlns:xlink="http://www.w3.org/1999/xlink"
   xmlns="http://www.w3.org/2000/svg"
   xmlns:svg="http://www.w3.org/2000/svg"
   xmlns:rdf="http://www.w3.org/1999/02/22-rdf-syntax-ns#"
   xmlns:cc="http://creativecommons.org/ns#"
   xmlns:dc="http://purl.org/dc/elements/1.1/"><title
     id="title194">Sleeping Funkus</title><sodipodi:namedview
     id="namedview7"
     pagecolor="#505050"
     bordercolor="#eeeeee"
     borderopacity="1"
     inkscape:showpageshadow="0"
     inkscape:pageopacity="0"
     inkscape:pagecheckerboard="0"
     inkscape:deskcolor="#505050"
     inkscape:document-units="px"
     showgrid="true"
     inkscape:current-layer="funkus_layer"
     showguides="true"
     shape-rendering="crispEdges"><sodipodi:guide
       position="400,700"
       orientation="1,0"
       id="guide322"
       inkscape:locked="false" /><inkscape:grid
       type="xygrid"
       id="grid1450"
       spacingx="1"
       spacingy="1"
       color="#00a100"
       opacity="0.1254902"
       empcolor="#000000"
       empopacity="0.25098039"
       empspacing="10" /><sodipodi:guide
       position="350,430"
       orientation="0,-1"
       id="guide1430"
       inkscape:locked="false" /></sodipodi:namedview><defs
     id="defs2"><linearGradient
       id="symbols_colour"
       inkscape:swatch="solid"><stop
         style="stop-color:#66cccc;stop-opacity:1;"
         offset="0"
         id="stop4053" /></linearGradient><rect
       x="800"
       y="0"
       width="400"
       height="370"
       id="rect2648" /><linearGradient
       id="blush_colour"
       inkscape:swatch="solid"
       gradientTransform="matrix(0.43633024,0.11762478,-0.11617006,0.43618739,-782.56833,-19.466068)"><stop
         style="stop-color:#ff0066;stop-opacity:1;"
         offset="0"
         id="stop1340" /></linearGradient><linearGradient
       id="eye_colour"
       inkscape:swatch="solid"
       gradientTransform="translate(-53.812652,-17.479416)"><stop
         style="stop-color:#ffffff;stop-opacity:1;"
         offset="0"
         id="stop1534" /></linearGradient><linearGradient
       id="contour_colour"
       inkscape:swatch="solid"
       gradientTransform="matrix(-0.45317462,0.78677998,-0.78781554,-0.45592854,860.9059,50.325121)"><stop
         style="stop-color:#11012f;stop-opacity:1;"
         offset="0"
         id="stop1436" /></linearGradient><linearGradient
       id="inner_cap_colour"
       inkscape:swatch="solid"><stop
         style="stop-color:#330066;stop-opacity:1;"
         offset="0"
         id="stop1003" /></linearGradient><linearGradient
       id="outer_cap_colour"
       inkscape:swatch="solid"><stop
         style="stop-color:#6633cc;stop-opacity:1;"
         offset="0"
         id="stop1208" /></linearGradient><linearGradient
       id="stem_colour"
       inkscape:swatch="solid"
       gradientTransform="matrix(1.5,0,0,1.1111111,145.00003,-62.22222)"><stop
         style="stop-color:#ff9966;stop-opacity:1;"
         offset="0"
         id="stop1147" /></linearGradient><linearGradient
       inkscape:collect="always"
       xlink:href="#blush_colour"
       id="linearGradient1344"
       x1="240"
       y1="503.33334"
       x2="270"
       y2="503.33334"
       gradientUnits="userSpaceOnUse"
       gradientTransform="matrix(1.2000004,0,0,1.2000004,-45.000088,-104.66689)" /><linearGradient
       inkscape:collect="always"
       xlink:href="#blush_colour"
       id="linearGradient1371"
       gradientUnits="userSpaceOnUse"
       gradientTransform="matrix(1.2000004,0,0,1.2000004,62.999966,-104.66688)"
       x1="240"
       y1="503.33334"
       x2="270"
       y2="503.33334" /><linearGradient
       inkscape:collect="always"
       xlink:href="#outer_cap_colour"
       id="linearGradient1753"
       gradientUnits="userSpaceOnUse"
       gradientTransform="translate(0,-30)"
       x1="22.382624"
       y1="175"
       x2="778.42378"
       y2="175" /><linearGradient
       inkscape:collect="always"
       xlink:href="#inner_cap_colour"
       id="linearGradient1755"
       gradientUnits="userSpaceOnUse"
       x1="56.264488"
       y1="215.05252"
       x2="743.74231"
       y2="215.05252" /><linearGradient
       inkscape:collect="always"
       xlink:href="#contour_colour"
       id="linearGradient1757"
       gradientUnits="userSpaceOnUse"
       x1="55.749044"
       y1="245.05249"
       x2="744.26138"
       y2="245.05249" /><linearGradient
       inkscape:collect="always"
       xlink:href="#stem_colour"
       id="linearGradient1759"
       gradientUnits="userSpaceOnUse"
       x1="400"
       y1="780"
       x2="400"
       y2="200" /><linearGradient
       inkscape:collect="always"
       xlink:href="#inner_cap_colour"
       id="linearGradient4755"
       gradientTransform="matrix(1.272725,0,0,-1.1428551,-11.483933,1362.8079)"
       gradientUnits="userSpaceOnUse" /><linearGradient
       inkscape:collect="always"
       xlink:href="#contour_colour"
       id="linearGradient829"
       x1="280"
       y1="575.00122"
       x2="520"
       y2="575.00122"
       gradientUnits="userSpaceOnUse"
       gradientTransform="matrix(1,0,0,-1,0,1170)" /><linearGradient
       inkscape:collect="always"
       xlink:href="#blush_colour"
       id="linearGradient1084"
       gradientUnits="userSpaceOnUse" /><rect
       x="800"
       y="0"
       width="400"
       height="370"
       id="rect3327" /></defs><g
     inkscape:label="mushroom"
     inkscape:groupmode="layer"
     id="funkus_layer"
     style="display:inline"
     transform="translate(-0.12055022)"
     inkscape:highlight-color="#ff0000"
     sodipodi:insensitive="true"><path
       style="display:none;fill:url(#linearGradient1753);fill-opacity:1;stroke:url(#contour_colour);stroke-width:10;stroke-linecap:butt;stroke-linejoin:miter;stroke-dasharray:none;stroke-opacity:1"
       d="M 50,350 C 86.967017,370.27849 717.27777,317.61966 750,300 880,230 600,10 400,20 200,30 -79.152542,279.15254 50,350 Z"
       id="original_cap"
       sodipodi:nodetypes="sszs"
       inkscape:label="original cap" /><path
       id="inner_cap"
       style="display:inline;opacity:1;fill:url(#linearGradient1755);fill-opacity:1;stroke:url(#linearGradient1757);stroke-width:10;stroke-linecap:butt;stroke-linejoin:miter;stroke-dasharray:none;stroke-opacity:1"
       d="m 740.12055,300 c -13.09032,17.90597 -643.972259,69.94504 -680,50 -36.027741,-19.94504 140,-90 340,-100 200,-10 360,20 340,50 z"
       inkscape:label="inner cap"
       sodipodi:nodetypes="czzc" /><path
       style="display:inline;mix-blend-mode:normal;fill:url(#linearGradient1759);fill-opacity:1;stroke:url(#contour_colour);stroke-width:10;stroke-linecap:butt;stroke-linejoin:miter;stroke-miterlimit:4;stroke-dasharray:none;stroke-opacity:1;paint-order:normal"
       d="m 254.02395,248 c 0.51282,133.07692 -139.81875,269.78208 -100,402 15.64757,51.95766 50,90 120,110 79.2893,22.65408 180.7107,22.65408 260,0 70,-20 104.35243,-58.04234 120,-110 39.81875,-132.21792 -100,-270 -100,-402 z"
       id="stem"
       sodipodi:nodetypes="cassacc"
       inkscape:label="stem"
       class="UnoptimicedTransforms"
       transform="translate(-3.903401)" /><path
       id="outer_cap"
       style="display:inline;fill:url(#linearGradient1753);fill-opacity:1;stroke:url(#contour_colour);stroke-width:10;stroke-linecap:butt;stroke-linejoin:miter;stroke-dasharray:none;stroke-opacity:1"
       inkscape:label="outer cap"
       d="M 418.97016,19.724609 C 412.57887,19.599487 406.24945,19.6875 399.99946,20 199.99966,29.99999 -79.152956,279.15261 49.999456,350 c 7.12652,3.9093 36.616024,5.06265 79.312504,4.32422 -37.060259,0.39997 -62.8003,-0.78609 -69.19141,-4.32422 -36.027705,-19.94502 140.0002,-90.00001 340,-100 199.9998,-9.99999 359.99998,20.00003 340,50 -2.51342,3.43805 -28.08734,8.14404 -67.56836,13.34766 C 714.80376,308.11489 743.686,303.39955 749.99946,300 875.93683,232.18757 617.10015,23.60339 418.97016,19.724609 Z" /><g
       id="g2279"
       inkscape:label="stars"
       style="display:inline;opacity:0.75;mix-blend-mode:normal;fill:#ffff00;fill-opacity:1"><path
         sodipodi:type="star"
         style="opacity:1;fill:#ffff00;fill-opacity:1;stroke:none;stroke-width:10;stroke-linecap:round;stroke-linejoin:round;stroke-dasharray:none"
         id="path2109"
         inkscape:flatsided="false"
         sodipodi:sides="5"
         sodipodi:cx="260"
         sodipodi:cy="140"
         sodipodi:r1="44.721359"
         sodipodi:r2="22.36068"
         sodipodi:arg1="0.46364761"
         sodipodi:arg2="1.0919661"
         inkscape:rounded="0"
         inkscape:randomized="0"
         d="M 300,160 270.30249,159.84587 253.33955,184.2226 244.3091,155.93096 215.88362,147.33107 240,130 l -0.60497,-29.69175 23.93519,17.58045 28.05159,-9.75062 -9.32362,28.19638 z"
         transform="translate(-30.181938,10.154126)"
         inkscape:transform-center-x="2.0581924"
         inkscape:transform-center-y="2.2654253" /><use
         id="use2381"
         inkscape:spray-origin="#path2109"
         xlink:href="#path2109"
         transform="rotate(4.8227786,662.58509,4553.0941)"
         style="fill:#ffff00;fill-opacity:1" /><use
         id="use2383"
         inkscape:spray-origin="#path2109"
         xlink:href="#path2109"
         transform="rotate(16.38782,130.46303,866.62263)"
         style="fill:#ffff00;fill-opacity:1" /><use
         id="use2385"
         inkscape:spray-origin="#path2109"
         xlink:href="#path2109"
         transform="rotate(-16.205276,431.7148,498.07575)"
         style="fill:#ffff00;fill-opacity:1" /><use
         id="use2387"
         inkscape:spray-origin="#path2109"
         xlink:href="#path2109"
         transform="rotate(-17.636379,374.63352,-104.06291)"
         style="fill:#ffff00;fill-opacity:1" /><use
         id="use2393"
         inkscape:spray-origin="#path2109"
         xlink:href="#path2109"
         transform="rotate(17.717676,502.60114,589.12136)"
         style="fill:#ffff00;fill-opacity:1" /><use
         id="use2397"
         inkscape:spray-origin="#path2109"
         xlink:href="#path2109"
         transform="rotate(4.7496984,-118.58066,3884.4765)"
         style="fill:#ffff00;fill-opacity:1" /><use
         id="use2401"
         inkscape:spray-origin="#path2109"
         xlink:href="#path2109"
         transform="rotate(-13.236467,733.63031,-1853.3312)"
         style="fill:#ffff00;fill-opacity:1" /><use
         id="use2409"
         inkscape:spray-origin="#path2109"
         xlink:href="#path2109"
         transform="rotate(-9.3227542,83.734795,-1353.5141)"
         style="fill:#ffff00;fill-opacity:1" /></g></g><g
     inkscape:groupmode="layer"
     id="face_layer"
     inkscape:label="face"
     style="display:inline"
     inkscape:highlight-color="#ff8000"
     sodipodi:insensitive="true"><g
       id="blush"
       inkscape:label="blush"
       style="opacity:0.5;fill:#ff0033;fill-opacity:1;stroke:none"
       transform="matrix(3.3333322,0,0,2.4999991,-649.99971,-778.33292)"><ellipse
         style="opacity:1;fill:url(#linearGradient1371);fill-opacity:1;stroke:none;stroke-width:36;stroke-linecap:round;stroke-linejoin:round;stroke-dasharray:none"
         id="right_blush"
         cx="369.00003"
         cy="499.33334"
         rx="18.000006"
         ry="24.00001"
         inkscape:label="right blush" /><ellipse
         style="opacity:1;fill:url(#linearGradient1344);fill-opacity:1;stroke:none;stroke-width:36.0001;stroke-linecap:round;stroke-linejoin:round;stroke-dasharray:none"
         id="left_blush"
         cx="261"
         cy="499.33334"
         rx="18.000006"
         ry="24.00001"
         inkscape:label="left blush" /></g><g
       id="mouth_group"
       inkscape:label="mouth"
       style="display:inline"
       transform="translate(0,-10)"><path
         style="display:inline;fill:url(#linearGradient4755);fill-opacity:1;stroke:url(#linearGradient829);stroke-width:10;stroke-linecap:round;stroke-linejoin:round;stroke-dasharray:none;stroke-opacity:1"
         d="m 310,640 c -70,0 -30,-110 90,-110 120,0 160.15333,109.27476 90,110 -90,-1 -90,-1 -180,0 z"
         id="mouth-5"
         sodipodi:nodetypes="czcc"
         inkscape:label="mouth" /><path
         style="display:inline;fill:url(#linearGradient1084);fill-opacity:1;stroke:none;stroke-width:10;stroke-linecap:round;stroke-linejoin:round;stroke-dasharray:none;stroke-opacity:1"
         d="m 285,635 c 81.00152,-1.11151 147.99796,-0.49721 229,0 26.5,-33.75 -50.27377,-35.07773 -114,-35 -62.75067,0.0765 -145,0 -115,35 z"
         id="tongue"
         sodipodi:nodetypes="ccsc"
         inkscape:label="tongue" /><path
         style="display:inline;fill:none;fill-opacity:1;stroke:url(#contour_colour);stroke-width:10;stroke-linecap:round;stroke-linejoin:round;stroke-dasharray:none;stroke-opacity:1"
         d="m 310,640 c -70,0 -30,-110 90,-110 120,0 160.15333,109.27476 90,110 -90,-1 -90,-1 -180,0 z"
         id="path3486"
         sodipodi:nodetypes="czcc"
         inkscape:label="mouth contour" /><path
         style="display:inline;fill:url(#eye_colour);stroke:none;stroke-width:1px;stroke-linecap:butt;stroke-linejoin:miter;stroke-opacity:1"
         d="m 511,619 c -4.13365,2.51266 -53.43953,4.4942 -61,5 -6.27603,0.41987 18.05872,17.20178 15,56 -1.40767,17.85551 -15,60 15,60 30,0 12.66377,-43.87655 13,-80 0.23215,-24.94104 23.78226,-44.51478 18,-41 z"
         id="path1913"
         inkscape:label="drool"
         sodipodi:nodetypes="ssszss"
         transform="translate(0,10)" /></g><g
       id="eyes"
       inkscape:label="eyes"
       style="display:inline"
       transform="matrix(1,0,0,-1,0,734.97596)"><path
         style="fill:none;stroke:url(#contour_colour);stroke-width:30;stroke-linecap:round;stroke-linejoin:miter;stroke-dasharray:none;stroke-opacity:1"
         d="m 550,374.97596 c -20,-50 -100,-50 -120,0"
         id="right_eye"
         inkscape:label="right eye"
         sodipodi:nodetypes="cc" /><path
         style="fill:none;stroke:url(#contour_colour);stroke-width:30;stroke-linecap:round;stroke-linejoin:miter;stroke-dasharray:none;stroke-opacity:1"
         d="m 370,374.97596 c -20,-50 -100,-50 -120,0"
         id="left_eye"
         inkscape:label="left eye"
         sodipodi:nodetypes="cc" /></g></g><metadata
     id="metadata192"><rdf:RDF><cc:Work
         rdf:about=""><dc:title>Sleeping Funkus</dc:title><dc:date>2022-06-20</dc:date><dc:creator><cc:Agent><dc:title>tastytea</dc:title></cc:Agent></dc:creator><dc:subject><rdf:Bag><rdf:li>fungus</rdf:li><rdf:li>mushroom</rdf:li><rdf:li>sleep</rdf:li></rdf:Bag></dc:subject><cc:license
           rdf:resource="http://creativecommons.org/publicdomain/zero/1.0/" /><dc:source>https://codeberg.org/tastytea/funkus</dc:source></cc:Work><cc:License
         rdf:about="http://creativecommons.org/publicdomain/zero/1.0/"><cc:permits
           rdf:resource="http://creativecommons.org/ns#Reproduction" /><cc:permits
           rdf:resource="http://creativecommons.org/ns#Distribution" /><cc:permits
           rdf:resource="http://creativecommons.org/ns#DerivativeWorks" /></cc:License></rdf:RDF></metadata><g
     id="layer1"
     inkscape:label="zzZ"
     sodipodi:insensitive="true"
     style="fill:url(#symbols_colour);stroke:url(#contour_colour)"><text
       xml:space="preserve"
       transform="translate(-240,25)"
       id="text2646"
       style="font-style:normal;font-variant:normal;font-weight:normal;font-stretch:normal;font-size:300px;line-height:1.25;font-family:Felt;-inkscape-font-specification:'Felt weight=101';letter-spacing:0px;word-spacing:0px;white-space:pre;shape-inside:url(#rect2648);display:none;fill:url(#symbols_colour);fill-opacity:1;stroke:url(#contour_colour)"
       inkscape:label="z" /><path
       d="m 374.15446,330.65646 c -0.92445,0.30375 -3.01584,1.51692 -6.27416,3.63953 -3.23426,2.25912 -5.73215,3.54397 -7.49368,3.85458 -4.87809,0.86014 -9.58275,-0.0695 -14.114,-2.78889 -4.37167,-2.60679 -12.69418,-13.54132 -13.48839,-18.04554 -0.19254,-1.09193 -0.32178,-2.61723 -0.38771,-4.57589 0.0696,-1.98255 1.31052,-4.45314 3.72286,-7.41172 C 338.50766,302.23345 339.8012,300.45727 340,300 l 28.35792,-68.33103 -16.88389,4.87701 -2.60248,0.45889 c -1.21953,0.21503 -4.24559,-0.30691 -9.07816,-1.56581 -4.83259,-1.25892 -9.23806,-9.2077 -10.29701,-15.21331 -0.57761,-3.2758 -0.16615,-6.09268 1.23437,-8.45065 1.40053,-2.35799 2.6067,-3.83728 3.61851,-4.43789 1.12326,-0.76101 2.43014,-1.27291 3.92067,-1.53573 4.27278,-0.3312 8.60127,-0.74259 12.98548,-1.23417 l 31.05774,-9.27617 c 1.73746,-0.4471 4.08024,-1.42313 7.02832,-2.9281 2.94808,-1.50497 4.89638,-2.34108 5.8449,-2.50833 1.21952,-0.21504 2.89368,-0.22877 5.02249,-0.0412 2.10474,0.0511 4.87313,1.88507 8.30519,5.50195 3.56757,3.59299 10.3608,11.61332 10.44454,15.25766 0.1622,2.50464 -0.46899,4.86769 -1.89358,7.08918 -2.61115,3.41585 -5.15455,6.81976 -7.63019,10.21172 l -27.44233,64.78695 19.59827,-6.2654 c 1.46646,-0.39932 3.44642,-1.45211 5.93985,-3.15839 2.62895,-1.73017 4.48543,-2.69082 5.56946,-2.88196 1.08402,-0.19114 2.62268,-0.18098 4.61597,0.0305 2.10475,0.0511 4.5179,1.45513 7.23948,4.21215 2.72159,2.75702 5.58476,15.2171 6.23458,18.90238 0.57761,3.27579 0.11043,6.17286 -1.40153,8.69123 -1.53603,2.38186 -3.72681,3.82367 -6.57236,4.32542 -0.94852,0.16725 -2.59862,0.31747 -4.95028,0.45066 -2.35168,0.13319 -4.20503,0.31926 -5.56006,0.55819 l -1.82928,0.32255 z"
       id="path3331"
       inkscape:label="bottom"
       style="font-size:300px;line-height:1.25;font-family:Felt;-inkscape-font-specification:'Felt weight=101';letter-spacing:0px;word-spacing:0px;white-space:pre;shape-inside:url(#rect3327);display:inline;fill:url(#symbols_colour);fill-opacity:1;stroke:url(#contour_colour);stroke-width:10;stroke-dasharray:none"
       sodipodi:nodetypes="ccscsccccccsssccccssccccccccscsscssscc" /><path
       d="m 486.57007,273.5796 c -1.39386,-0.0455 -4.80417,0.55485 -10.2309,1.80106 -5.46099,1.44045 -9.45398,1.93806 -11.97898,1.49278 -6.99231,-1.23305 -12.87672,-4.77436 -17.65322,-10.6239 -4.61651,-5.62103 -10.48796,-24.30655 -9.35778,-30.71681 0.27399,-1.554 0.84495,-3.6565 1.71289,-6.3075 1.06217,-2.61674 3.94091,-5.31372 8.63622,-8.09094 4.72956,-2.97146 7.33995,-4.71431 7.83115,-5.22855 l 71.58447,-77.50674 -25.12968,-1.72756 -3.73044,-0.65784 c -1.74808,-0.30826 -5.57007,-2.48442 -11.46597,-6.52846 -5.89589,-4.04406 -7.94848,-16.82397 -6.44155,-25.37097 0.82195,-4.661995 2.7523,-8.227235 5.79102,-10.695715 3.03872,-2.46849 5.38638,-3.85709 7.04297,-4.16583 1.88507,-0.46874 3.89588,-0.51472 6.03242,-0.13796 5.91841,1.64455 11.95107,3.2091 18.09797,4.69364 l 46.37474,2.77012 c 2.55925,0.25101 6.19241,0.0905 10.89945,-0.48142 4.70705,-0.57197 7.74039,-0.73807 9.1,-0.49831 1.74808,0.30826 4.01035,1.10778 6.78683,2.39855 2.81072,1.09652 5.64467,4.901045 8.50184,11.413575 3.05142,6.54678 8.28604,20.58885 6.61867,25.50235 -1.00493,3.42799 -3.00964,6.2791 -6.01411,8.55333 -5.18652,3.29147 -10.27594,6.60005 -15.26822,9.92576 l -68.61972,73.21547 29.46493,1.19731 c 2.17079,0.18251 5.35261,-0.25784 9.54547,-1.32106 4.38708,-1.02897 7.35755,-1.40645 8.9114,-1.13243 1.55384,0.27401 3.62189,1.03928 6.20413,2.2958 2.81072,1.09652 5.37607,4.15267 7.69606,9.16845 2.31999,5.01578 0.091,23.07399 -0.83372,28.31872 -0.82195,4.662 -2.86653,8.30724 -6.13374,10.93572 -3.23295,2.43424 -6.88885,3.2917 -10.96771,2.57243 -1.35961,-0.23978 -3.65614,-0.84503 -6.88956,-1.81581 -3.23344,-0.97078 -5.8213,-1.62742 -7.76362,-1.96994 l -2.62212,-0.4624 z"
       id="path3416"
       inkscape:label="middle"
       style="font-size:300px;line-height:1.25;font-family:Felt;-inkscape-font-specification:'Felt weight=101';letter-spacing:0px;word-spacing:0px;white-space:pre;shape-inside:url(#rect3327);display:inline;fill:url(#symbols_colour);fill-opacity:1;stroke:url(#contour_colour);stroke-width:10;stroke-dasharray:none"
       sodipodi:nodetypes="ccscsccccccsssccccssccccccccscsscssscc" /><path
       d="m 672.0812,242.41582 c -1.66747,0.23759 -5.59793,1.66316 -11.79138,4.2767 -6.19345,2.85114 -10.83854,4.27671 -13.93527,4.27671 -8.57554,0 -16.31736,-2.96994 -23.22544,-8.90981 -6.66987,-5.70227 -17.57219,-26.63986 -17.57219,-34.48049 0,-1.90076 0.23821,-4.5143 0.71463,-7.84063 0.71463,-3.32633 3.57315,-7.12784 8.57555,-11.40455 5.0024,-4.5143 7.74181,-7.12784 8.21823,-7.84063 l 68.89171,-106.917661 -30.25262,3.20753 h -4.57511 c -2.14388,0 -7.14629,-1.781961 -15.00721,-5.345883 -7.86091,-3.563922 -12.98242,-18.294812 -12.98242,-28.748983 0,-5.702275 1.54836,-10.335374 4.64509,-13.899296 3.09672,-3.563922 5.59792,-5.702275 7.5036,-6.415059 2.14389,-0.950379 4.52598,-1.425569 7.14629,-1.425569 7.3845,0.712784 14.8881,1.306771 22.51081,1.781961 l 55.74106,-6.41506 c 3.09673,-0.237594 7.3845,-1.187974 12.86333,-2.851137 5.47882,-1.663164 9.05196,-2.494745 10.71943,-2.494745 2.14389,0 5.0024,0.475189 8.57555,1.425568 3.57314,0.712785 7.74181,4.633099 12.506,11.760943 5.00241,7.127844 14.17348,22.690315 13.22064,28.86778 -0.47642,4.276706 -2.26299,8.078223 -5.35972,11.40455 -5.47883,4.989491 -10.83854,9.978982 -16.07916,14.968473 l -66.26521,101.206938 35.29796,-4.74345 c 2.62031,-0.23759 6.31255,-1.42556 11.07674,-3.56392 5.00241,-2.13835 8.45645,-3.20753 10.36213,-3.20753 1.90567,0 4.52598,0.47519 7.86091,1.42557 3.57315,0.71279 7.2654,3.80152 11.07675,9.2662 3.81136,5.46468 4.94708,27.35265 4.94708,33.76771 0,5.70227 -1.66747,10.45417 -5.0024,14.25569 -3.33494,3.56392 -7.50361,5.34588 -12.50601,5.34588 -1.66747,0 -4.52598,-0.2376 -8.57555,-0.71279 -4.04956,-0.47519 -7.26539,-0.71278 -9.64749,-0.71278 h -3.21582 z"
       id="path3414"
       inkscape:label="top"
       style="font-size:300px;line-height:1.25;font-family:Felt;-inkscape-font-specification:'Felt weight=101';letter-spacing:0px;word-spacing:0px;white-space:pre;shape-inside:url(#rect3327);display:inline;fill:url(#symbols_colour);fill-opacity:1;stroke:url(#contour_colour);stroke-width:10;stroke-dasharray:none"
       sodipodi:nodetypes="ccscsccccccsssccccssccccccccscsscssscc" /></g></svg>
