<?xml version="1.0" encoding="UTF-8" standalone="no"?>
<!-- Created with Inkscape (http://www.inkscape.org/) -->

<svg
   width="800"
   height="800"
   viewBox="0 0 800 800"
   version="1.1"
   id="svg5"
   inkscape:version="1.2 (dc2aedaf03, 2022-05-15)"
   sodipodi:docname="funkus_angry.svg"
   xml:space="preserve"
   xmlns:inkscape="http://www.inkscape.org/namespaces/inkscape"
   xmlns:sodipodi="http://sodipodi.sourceforge.net/DTD/sodipodi-0.dtd"
   xmlns:xlink="http://www.w3.org/1999/xlink"
   xmlns="http://www.w3.org/2000/svg"
   xmlns:svg="http://www.w3.org/2000/svg"
   xmlns:rdf="http://www.w3.org/1999/02/22-rdf-syntax-ns#"
   xmlns:cc="http://creativecommons.org/ns#"
   xmlns:dc="http://purl.org/dc/elements/1.1/"><title
     id="title194">Angry Funkus</title><sodipodi:namedview
     id="namedview7"
     pagecolor="#505050"
     bordercolor="#eeeeee"
     borderopacity="1"
     inkscape:showpageshadow="0"
     inkscape:pageopacity="0"
     inkscape:pagecheckerboard="0"
     inkscape:deskcolor="#505050"
     inkscape:document-units="px"
     showgrid="true"
     inkscape:current-layer="layer1"
     showguides="true"
     shape-rendering="crispEdges"><sodipodi:guide
       position="400,700"
       orientation="1,0"
       id="guide322"
       inkscape:locked="false" /><inkscape:grid
       type="xygrid"
       id="grid1450"
       spacingx="1"
       spacingy="1"
       color="#ff0000"
       opacity="0.1254902"
       empcolor="#000000"
       empopacity="0.25098039"
       empspacing="10" /><sodipodi:guide
       position="470,400"
       orientation="0,-1"
       id="guide532"
       inkscape:locked="false" /></sodipodi:namedview><defs
     id="defs2"><inkscape:path-effect
       effect="powermask"
       id="path-effect3391"
       is_visible="true"
       lpeversion="1"
       uri="#mask-powermask-path-effect3391"
       invert="false"
       hide_mask="false"
       background="true"
       background_color="#ffffffff" /><linearGradient
       id="anger_colour"
       inkscape:swatch="solid"><stop
         style="stop-color:#ff0066;stop-opacity:1;"
         offset="0"
         id="stop2811" /></linearGradient><linearGradient
       id="eye_colour"
       inkscape:swatch="solid"><stop
         style="stop-color:#ffffff;stop-opacity:1;"
         offset="0"
         id="stop1534" /></linearGradient><linearGradient
       id="contour_colour"
       inkscape:swatch="solid"
       gradientTransform="matrix(-1.272725,0,0,1.1428551,941.48674,-52.80793)"><stop
         style="stop-color:#11012f;stop-opacity:1;"
         offset="0"
         id="stop1436" /></linearGradient><linearGradient
       id="inner_cap_colour"
       inkscape:swatch="solid"><stop
         style="stop-color:#330066;stop-opacity:1;"
         offset="0"
         id="stop1003" /></linearGradient><linearGradient
       id="outer_cap_colour"
       inkscape:swatch="solid"><stop
         style="stop-color:#6633cc;stop-opacity:1;"
         offset="0"
         id="stop1208" /></linearGradient><linearGradient
       id="stem_colour"
       inkscape:swatch="solid"><stop
         style="stop-color:#ff9966;stop-opacity:1;"
         offset="0"
         id="stop1147" /></linearGradient><linearGradient
       inkscape:collect="always"
       xlink:href="#outer_cap_colour"
       id="linearGradient1212"
       x1="22.382624"
       y1="175"
       x2="778.42378"
       y2="175"
       gradientUnits="userSpaceOnUse"
       gradientTransform="translate(0,-30)" /><linearGradient
       inkscape:collect="always"
       xlink:href="#inner_cap_colour"
       id="linearGradient1007"
       x1="56.264488"
       y1="215.05252"
       x2="743.74231"
       y2="215.05252"
       gradientUnits="userSpaceOnUse" /><linearGradient
       inkscape:collect="always"
       xlink:href="#contour_colour"
       id="linearGradient1440"
       x1="55.749044"
       y1="245.05249"
       x2="744.26138"
       y2="245.05249"
       gradientUnits="userSpaceOnUse" /><linearGradient
       inkscape:collect="always"
       xlink:href="#contour_colour"
       id="linearGradient1227"
       x1="320"
       y1="380"
       x2="340"
       y2="380"
       gradientUnits="userSpaceOnUse"
       gradientTransform="matrix(1.7499998,0,0,1.7499998,-262.49993,-269.99985)" /><linearGradient
       inkscape:collect="always"
       xlink:href="#contour_colour"
       id="linearGradient1294"
       gradientUnits="userSpaceOnUse"
       gradientTransform="matrix(1.75,0,0,1.75,-92.5,-269.99993)"
       x1="320"
       y1="380"
       x2="340"
       y2="380" /><linearGradient
       inkscape:collect="always"
       xlink:href="#contour_colour"
       id="linearGradient1296"
       gradientUnits="userSpaceOnUse"
       gradientTransform="matrix(1.4000022,0,0,1.0666682,31.999216,-31.333835)"
       x1="270"
       y1="395"
       x2="370"
       y2="395" /><linearGradient
       inkscape:collect="always"
       xlink:href="#eye_colour"
       id="linearGradient1538"
       x1="245"
       y1="376.60458"
       x2="395"
       y2="376.60458"
       gradientUnits="userSpaceOnUse"
       gradientTransform="matrix(1.1666667,0,0,1.0443237,-53.333154,-3.2971318)" /><linearGradient
       inkscape:collect="always"
       xlink:href="#eye_colour"
       id="linearGradient1544"
       x1="405"
       y1="376.60458"
       x2="555"
       y2="376.60458"
       gradientUnits="userSpaceOnUse"
       gradientTransform="matrix(0.97759279,0,0,0.8281193,10.755445,78.126569)" /><linearGradient
       inkscape:collect="always"
       xlink:href="#stem_colour"
       id="linearGradient880-3"
       gradientUnits="userSpaceOnUse"
       x1="400"
       y1="780"
       x2="400"
       y2="200" /><linearGradient
       inkscape:collect="always"
       xlink:href="#outer_cap_colour"
       id="linearGradient891"
       gradientUnits="userSpaceOnUse"
       gradientTransform="translate(0,-30)"
       x1="22.382624"
       y1="175"
       x2="778.42377"
       y2="175" /><linearGradient
       id="blush_colour"
       inkscape:swatch="solid"><stop
         style="stop-color:#ff0066;stop-opacity:1;"
         offset="0"
         id="stop1340" /></linearGradient><filter
       inkscape:collect="always"
       style="color-interpolation-filters:sRGB"
       id="filter3067"
       x="-0.21944563"
       y="-0.4827804"
       width="1.4388913"
       height="1.9655608"><feGaussianBlur
         inkscape:collect="always"
         stdDeviation="30.173775"
         id="feGaussianBlur3069" /></filter><mask
       maskUnits="userSpaceOnUse"
       id="mask-powermask-path-effect3391"><path
         id="mask-powermask-path-effect3391_box"
         style="fill:#ffffff;fill-opacity:1"
         d="M 162,197 H 637.99998 V 493.00001 H 162 Z" /><path
         id="path3387"
         style="display:inline;fill:url(#linearGradient3389);fill-opacity:1;stroke:url(#contour_colour);stroke-width:10;stroke-linecap:butt;stroke-linejoin:miter;stroke-dasharray:none;stroke-opacity:1"
         inkscape:label="outer cap"
         d="M 418.96875,19.724609 C 412.57746,19.599487 406.24999,19.6875 400,20 200.0002,29.99999 -79.152413,279.15261 50,350 c 7.126419,3.90924 36.615054,5.06259 79.31055,4.32422 C 92.179158,354.72857 66.398565,353.54226 60,350 23.972295,330.05498 199.95079,260.2682 400,250 c 200.04921,-10.2682 359.99998,20.00003 340,50 -2.55876,3.50008 -29.19449,8.31889 -69.90625,13.63477 C 713.6006,308.28906 743.57328,303.46054 750,300 875.93737,232.18757 617.09874,23.60339 418.96875,19.724609 Z" /></mask><linearGradient
       inkscape:collect="always"
       xlink:href="#outer_cap_colour"
       id="linearGradient3389"
       gradientUnits="userSpaceOnUse"
       gradientTransform="translate(0,-30)"
       x1="22.382624"
       y1="175"
       x2="778.42377"
       y2="175" /></defs><g
     inkscape:label="mushroom"
     inkscape:groupmode="layer"
     id="funkus_layer"
     style="display:inline"
     sodipodi:insensitive="true"
     inkscape:highlight-color="#ff0000"><path
       style="display:none;fill:url(#linearGradient1212);fill-opacity:1;stroke:url(#contour_colour);stroke-width:10;stroke-linecap:butt;stroke-linejoin:miter;stroke-dasharray:none;stroke-opacity:1"
       d="M 50,350 C 86.967017,370.27849 717.27777,317.61966 750,300 880,230 600,10 400,20 200,30 -79.152542,279.15254 50,350 Z"
       id="original_cap"
       sodipodi:nodetypes="sszs"
       inkscape:label="original cap" /><path
       id="inner_cap"
       style="display:inline;opacity:1;fill:url(#linearGradient1007);fill-opacity:1;stroke:url(#linearGradient1440);stroke-width:10;stroke-linecap:butt;stroke-linejoin:miter;stroke-dasharray:none;stroke-opacity:1"
       d="M 740,300 C 726.90968,317.90597 96.027741,369.94504 60,350 23.972259,330.05496 199.95059,260.26821 400,250 c 200.04941,-10.26821 360,20 340,50 z"
       inkscape:label="inner cap"
       sodipodi:nodetypes="czzc" /><path
       style="display:inline;mix-blend-mode:normal;fill:url(#linearGradient880-3);fill-opacity:1;stroke:url(#contour_colour);stroke-width:10;stroke-linecap:butt;stroke-linejoin:miter;stroke-miterlimit:4;stroke-dasharray:none;stroke-opacity:1;paint-order:normal"
       d="m 253.9034,248 c 0,132 -139.81875,269.78208 -100,402 15.64757,51.95766 50,90 120,110 79.2893,22.65408 180.7107,22.65408 260,0 70,-20 104.35243,-58.04234 120,-110 39.81875,-132.21792 -100,-270 -100,-402 z"
       id="stem"
       sodipodi:nodetypes="cassacc"
       inkscape:label="stem"
       class="UnoptimicedTransforms"
       transform="translate(-3.903401)" /><path
       id="outer_cap"
       style="display:inline;fill:url(#linearGradient891);fill-opacity:1;stroke:url(#contour_colour);stroke-width:10;stroke-linecap:butt;stroke-linejoin:miter;stroke-dasharray:none;stroke-opacity:1"
       inkscape:label="outer cap"
       d="M 418.96875,19.724609 C 412.57746,19.599487 406.24999,19.6875 400,20 200.0002,29.99999 -79.152413,279.15261 50,350 c 7.126419,3.90924 36.615054,5.06259 79.31055,4.32422 C 92.179158,354.72857 66.398565,353.54226 60,350 23.972295,330.05498 199.95079,260.2682 400,250 c 200.04921,-10.2682 359.99998,20.00003 340,50 -2.55876,3.50008 -29.19449,8.31889 -69.90625,13.63477 C 713.6006,308.28906 743.57328,303.46054 750,300 875.93737,232.18757 617.09874,23.60339 418.96875,19.724609 Z" /></g><g
     inkscape:groupmode="layer"
     id="layer1"
     inkscape:label="anger"
     style="display:inline;fill:url(#blush_colour);fill-opacity:1"><path
       style="display:inline;opacity:0.5;fill:url(#blush_colour);fill-opacity:1;stroke-width:5;stroke-linecap:round;stroke-linejoin:round;filter:url(#filter3067)"
       id="path2869"
       inkscape:label="blush"
       mask="url(#mask-powermask-path-effect3391)"
       inkscape:path-effect="#path-effect3391"
       sodipodi:type="arc"
       sodipodi:cx="400"
       sodipodi:cy="345"
       sodipodi:rx="165"
       sodipodi:ry="75"
       d="M 565,345 A 165,75 0 0 1 400,420 165,75 0 0 1 235,345 165,75 0 0 1 400,270 165,75 0 0 1 565,345 Z" /><g
       id="g1162"
       transform="matrix(1.9593033,0.81158209,-0.81157577,1.9593464,553.15572,-4.1236599)"
       inkscape:label="# symbol"
       style="fill:url(#blush_colour);stroke:url(#blush_colour);stroke-width:7.07294;stroke-dasharray:none"><g
         id="g1125"
         style="fill:url(#blush_colour);stroke:url(#blush_colour);stroke-width:7.07294;stroke-dasharray:none">
	<g
   id="g1123"
   style="fill:url(#blush_colour);stroke:url(#blush_colour);stroke-width:7.07294;stroke-dasharray:none">
		<path
   style="fill:url(#blush_colour);stroke:url(#blush_colour);stroke-width:7.07294;stroke-dasharray:none"
   d="m 63.7,36.003494 c -27.77,0 -38.93,-27.2299999 -38.93,-27.2299999 -1.22,-2.34 -1.79,-5.33 -0.03,-7.38 0.13,-0.15 0.26,-0.28 0.39,-0.40999998 2.19,-2.02000002 5.49,-0.86 6.61,2.10999998 2.27,6.02 11.25,18.6299999 31.79,18.6299999 21.24,0 30.81,-13.8299999 32.87,-19.0099999 0.43,-1.09 1.18,-2.00999998 2.17,-2.39999998 1.58,-0.62 3.4,-0.2 4.66,1.25999998 1.76,2.04 1.3,4.28 -0.02,7.38 0,0 -11.74,27.0499999 -39.51,27.0499999 z"
   id="path1121"
   sodipodi:nodetypes="sccccsccccs" />
	</g>
</g><g
         id="g1131"
         style="fill:url(#blush_colour);stroke:url(#blush_colour);stroke-width:7.07294;stroke-dasharray:none">
	<g
   id="g1129"
   style="fill:url(#blush_colour);stroke:url(#blush_colour);stroke-width:7.07294;stroke-dasharray:none">
		<path
   style="fill:url(#blush_colour);stroke:url(#blush_colour);stroke-width:7.07294;stroke-dasharray:none"
   d="m 64.71,91.996642 c 27.77,0 38.93,27.229998 38.93,27.229998 1.22,2.34 1.79,5.33 0.03,7.38 -0.13,0.15 -0.26,0.28 -0.39,0.41 -2.19,2.02 -5.49,0.86 -6.61,-2.11 -2.27,-6.02 -11.25,-18.63 -31.79,-18.63 -21.24,0 -30.81,13.83 -32.87,19.01 -0.43,1.09 -1.18,2.01 -2.17,2.4 -1.58,0.62 -3.4,0.2 -4.66,-1.26 -1.76,-2.04 -1.3,-4.28 0.02,-7.38 0,0 11.73,-27.049998 39.51,-27.049998 z"
   id="path1127"
   sodipodi:nodetypes="sccccsccccs" />
	</g>
</g><g
         id="g1137"
         style="fill:url(#blush_colour);stroke:url(#blush_colour);stroke-width:7.07294;stroke-dasharray:none">
	<g
   id="g1135"
   style="fill:url(#blush_colour);stroke:url(#blush_colour);stroke-width:7.07294;stroke-dasharray:none">
		<path
   style="fill:url(#blush_colour);stroke:url(#blush_colour);stroke-width:7.07294;stroke-dasharray:none"
   d="m 91.996614,63.62 c 0,-27.33 27.229996,-38.31 27.229996,-38.31 2.34,-1.2 5.33,-1.76 7.38,-0.03 0.15,0.12 0.28,0.25 0.41,0.39 2.02,2.15 0.86,5.4 -2.11,6.5 -6.02,2.24 -18.63,11.07 -18.63,31.28 0,20.9 13.83,30.32 19.01,32.34 1.09,0.42 2.01,1.16 2.4,2.13 0.62,1.56 0.2,3.35 -1.26,4.59 -2.04,1.73 -4.28,1.28 -7.38,-0.01 0,-0.01 -27.049996,-11.56 -27.049996,-38.88 z"
   id="path1133"
   sodipodi:nodetypes="sccccsccccs" />
	</g>
</g><g
         id="g1143"
         style="fill:url(#blush_colour);stroke:url(#blush_colour);stroke-width:7.07294;stroke-dasharray:none">
	<g
   id="g1141"
   style="fill:url(#blush_colour);stroke:url(#blush_colour);stroke-width:7.07294;stroke-dasharray:none">
		<path
   style="fill:url(#blush_colour);stroke:url(#blush_colour);stroke-width:7.07294;stroke-dasharray:none"
   d="m 36.003219,64.21 c 0,27.33 -27.2299999,38.31 -27.2299999,38.31 -2.34,1.2 -5.33,1.76 -7.38,0.03 -0.15,-0.12 -0.28,-0.25 -0.41000001,-0.39 -2.01999999,-2.15 -0.86,-5.4 2.11000001,-6.5 6.02,-2.24 18.6299999,-11.07 18.6299999,-31.28 0,-20.9 -13.8299999,-30.32 -19.0099999,-32.34 -1.09,-0.42 -2.01000001,-1.16 -2.40000001,-2.13 -0.62,-1.56 -0.2,-3.35 1.26000001,-4.59 2.04,-1.73 4.28,-1.28 7.38,0.01 0,0 27.0499999,11.55 27.0499999,38.88 z"
   id="path1139"
   sodipodi:nodetypes="sccccsccccs" />
	</g>
</g></g></g><g
     inkscape:groupmode="layer"
     id="face_layer"
     inkscape:label="face"
     style="display:inline"
     inkscape:highlight-color="#ff8800"
     sodipodi:insensitive="true"><g
       id="eyes"
       inkscape:label="eyes"
       transform="translate(0,-20.000008)"
       style="display:inline"><path
         id="right_eye"
         style="fill:url(#linearGradient1544);stroke:url(#linearGradient1296);stroke-width:10;stroke-linecap:round"
         inkscape:label="right eye"
         d="m 550.00011,390.00012 c 0,44.18284 -31.34011,80.00012 -70.00011,80.00012 -38.66,0 -60,-50.00023 -40,-70.00023 20,-20 30.81062,-39.44881 50,-60 19.18938,-20.55119 60.00011,5.81727 60.00011,50.00011 z"
         sodipodi:nodetypes="sszzs" /><circle
         style="fill:url(#linearGradient1294);fill-opacity:1;stroke:none;stroke-width:7;stroke-linecap:round;stroke-dasharray:none"
         id="right_pupil"
         cx="485"
         cy="395"
         inkscape:label="right pupil"
         r="35" /><path
         id="left_eye"
         style="fill:url(#linearGradient1538);stroke:url(#contour_colour);stroke-width:10;stroke-linecap:round"
         inkscape:label="left eye"
         d="m 360,400.00001 c 20,20 -1.33983,69.99998 -39.99976,69.99998 -38.65993,0 -70,-35.81722 -70,-79.99999 0,-44.18277 39.99976,-69.99999 59.99976,-49.99999 20,20 30,40 50,60 z"
         sodipodi:nodetypes="zsszz" /><circle
         style="fill:url(#linearGradient1227);fill-opacity:1;stroke:none;stroke-width:7;stroke-linecap:round;stroke-dasharray:none"
         id="left_pupil"
         cx="315"
         cy="395"
         inkscape:label="left pupil"
         r="34.999996" /></g><path
       style="fill:none;stroke:url(#contour_colour);stroke-width:30;stroke-linecap:round;stroke-linejoin:miter;stroke-dasharray:none;stroke-opacity:1"
       d="m 320,590 c 0,0 70,-90 80,-90 10,0 80,90 80,90"
       id="mouth"
       sodipodi:nodetypes="czc"
       inkscape:label="mouth" /></g><metadata
     id="metadata192"><rdf:RDF><cc:Work
         rdf:about=""><dc:title>Angry Funkus</dc:title><dc:date>2022-06-20</dc:date><dc:creator><cc:Agent><dc:title>tastytea</dc:title></cc:Agent></dc:creator><dc:subject><rdf:Bag><rdf:li>fungus</rdf:li><rdf:li>mushroom</rdf:li><rdf:li>emoji</rdf:li><rdf:li>anger</rdf:li></rdf:Bag></dc:subject><cc:license
           rdf:resource="http://creativecommons.org/publicdomain/zero/1.0/" /><dc:source>https://codeberg.org/tastytea/funkus</dc:source></cc:Work><cc:License
         rdf:about="http://creativecommons.org/publicdomain/zero/1.0/"><cc:permits
           rdf:resource="http://creativecommons.org/ns#Reproduction" /><cc:permits
           rdf:resource="http://creativecommons.org/ns#Distribution" /><cc:permits
           rdf:resource="http://creativecommons.org/ns#DerivativeWorks" /></cc:License></rdf:RDF></metadata></svg>
